[
    {
        "component": "FTClusterMonitor",
        "entity": {
            "axis": [
                {
                    "maxValue": 7.5,
                    "minValue": -7.5,
                    "nBins": 15,
                    "title": ""
                }
            ],
            "bins": [
                0,
                0,
                0,
                0,
                0,
                0,
                1495,
                1595,
                27577,
                6675,
                2162,
                0,
                0,
                0,
                0,
                0,
                0
            ],
            "dimension": 1,
            "empty": false,
            "nEntries": 39504,
            "title": "Number of clusters per TAE;TAE;Clusters",
            "type": "histogram:Histogram:f"
        },
        "name": "nClustersPerTAE"
    },
    {
        "component": "FTClusterMonitor",
        "entity": {
            "axis": [
                {
                    "maxValue": 12287.5,
                    "minValue": -0.5,
                    "nBins": 192,
                    "title": ""
                }
            ],
            "bins": [
                0.0,
                322.0,
                342.0,
                326.0,
                334.0,
                323.0,
                340.0,
                334.0,
                328.0,
                677.0,
                604.0,
                631.0,
                558.0,
                559.0,
                516.0,
                495.0,
                454.0,
                509.0,
                453.0,
                403.0,
                389.0,
                442.0,
                324.0,
                379.0,
                354.0,
                341.0,
                317.0,
                291.0,
                321.0,
                282.0,
                291.0,
                634.0,
                602.0,
                287.0,
                245.0,
                258.0,
                193.0,
                247.0,
                230.0,
                205.0,
                200.0,
                226.0,
                203.0,
                221.0,
                193.0,
                199.0,
                186.0,
                190.0,
                187.0,
                149.0,
                202.0,
                138.0,
                146.0,
                157.0,
                173.0,
                176.0,
                142.0,
                179.0,
                145.0,
                168.0,
                160.0,
                162.0,
                143.0,
                149.0,
                197.0,
                145.0,
                112.0,
                134.0,
                142.0,
                128.0,
                124.0,
                114.0,
                120.0,
                112.0,
                137.0,
                137.0,
                130.0,
                141.0,
                117.0,
                137.0,
                126.0,
                119.0,
                127.0,
                122.0,
                122.0,
                99.0,
                77.0,
                85.0,
                78.0,
                89.0,
                102.0,
                71.0,
                95.0,
                108.0,
                86.0,
                80.0,
                67.0,
                65.0,
                72.0,
                74.0,
                66.0,
                71.0,
                77.0,
                77.0,
                78.0,
                70.0,
                72.0,
                58.0,
                61.0,
                72.0,
                66.0,
                63.0,
                61.0,
                57.0,
                66.0,
                73.0,
                65.0,
                57.0,
                55.0,
                42.0,
                63.0,
                58.0,
                51.0,
                50.0,
                54.0,
                66.0,
                59.0,
                64.0,
                56.0,
                80.0,
                51.0,
                65.0,
                44.0,
                62.0,
                48.0,
                37.0,
                48.0,
                72.0,
                75.0,
                69.0,
                76.0,
                86.0,
                70.0,
                74.0,
                68.0,
                76.0,
                57.0,
                64.0,
                65.0,
                69.0,
                52.0,
                41.0,
                64.0,
                46.0,
                66.0,
                43.0,
                50.0,
                46.0,
                43.0,
                43.0,
                53.0,
                19.0,
                23.0,
                9.0,
                10.0,
                15.0,
                20.0,
                18.0,
                14.0,
                14.0,
                20.0,
                13.0,
                12.0,
                36.0,
                16.0,
                15.0,
                12.0,
                19.0,
                23.0,
                20.0,
                23.0,
                13.0,
                6.0,
                6.0,
                20.0,
                18.0,
                16.0,
                15.0,
                20.0,
                11.0,
                14.0,
                20.0,
                11.0,
                0.0
            ],
            "dimension": 1,
            "empty": false,
            "nEntries": 27577,
            "title": "clusters per pseudo channel;Pseudo channel;Clusters / (64 channels)",
            "type": "histogram:WeightedHistogram:f"
        },
        "name": "TAE/MainEvent/LiteClustersPerPseudoChannel_64"
    }
]