ApplicationMgr    SUCCESS
====================================================================================================================================
====================================================================================================================================
ApplicationMgr       INFO Application Manager Configured successfully
IODataManager       ERROR Referring to existing dataset mdf:root://eoslhcb.cern.ch//eos/lhcb/wg/SciFi/Monitoring/test_files/Run_0000250946_20221026-063447-446_SCEB13.mdf by its physical name.
IODataManager       ERROR You may not be able to navigate back to the input file -- processing continues
ApplicationMgr       INFO Application Manager Initialized successfully
ApplicationMgr       INFO Application Manager Started successfully
EventSelector     SUCCESS Reading Event record 1. Record number within stream 1: 1
DecodeFT             INFO Conditions DB is compatible with FT bank version 7 and 8.
FTClusterMonitor     INFO isolated bunches:  56
FTClusterMonitor     INFO eventTime: 1666758882.37688
FTClusterMonitor  SUCCESS Filling Histograms... Please be patient!
EventSelector     SUCCESS Reading Event record 11. Record number within stream 1: 11
EventSelector     SUCCESS Reading Event record 21. Record number within stream 1: 21
EventSelector     SUCCESS Reading Event record 31. Record number within stream 1: 31
EventSelector     SUCCESS Reading Event record 41. Record number within stream 1: 41
EventSelector     SUCCESS Reading Event record 51. Record number within stream 1: 51
EventSelector     SUCCESS Reading Event record 61. Record number within stream 1: 61
EventSelector     SUCCESS Reading Event record 71. Record number within stream 1: 71
EventSelector     SUCCESS Reading Event record 81. Record number within stream 1: 81
EventSelector     SUCCESS Reading Event record 91. Record number within stream 1: 91
ApplicationMgr       INFO Application Manager Stopped successfully
ApplicationMgr       INFO Application Manager Finalized successfully
ApplicationMgr       INFO Application Manager Terminated successfully
FTClusterMonitor     INFO Number of counters : 1
 |    Counter                                      |     #     |    sum     | mean/eff^* | rms/err^*  |     min     |     max     |
 | "number of calls"                               |       100 |
